********************
i want to drink coffee now
heater heater heater heater the most similar0.175186833748
avg similar0.0683748928932
TV TV TV TV the most similar0.14533055418
avg similar0.0780044917459
music music music music the most similar0.256399204824
avg similar0.122422741557
lamp lamp lamp lamp the most similar0.184049714806
avg similar0.0780217654124
coffe coffe coffe coffe the most similar0.625431318475
avg similar0.256077768607
********************
switch on the light please
heater heater heater heater the most similar0.191255178086
avg similar0.0888258751102
TV TV TV TV the most similar0.160673515245
avg similar0.0930466731798
music music music music the most similar0.0895718432276
avg similar0.0486631608434
lamp lamp lamp lamp the most similar0.336959150205
avg similar0.13598103393
coffe coffe coffe coffe the most similar0.129135842199
avg similar0.0634600009107
********************
it is dark
heater heater the most similar0.134293235308
avg similar0.0650551559372
TV TV the most similar0.110838067926
avg similar0.0545705966893
music music the most similar0.167309051269
avg similar0.0751672353675
lamp lamp the most similar0.105598279212
avg similar0.0458149870163
coffe coffe the most similar0.140122777333
avg similar0.0483592755308
